[gd_resource type="SpriteFrames" load_steps=5 format=3 uid="uid://cbyb8smdlj3bu"]

[ext_resource type="Texture2D" uid="uid://4c6sx2exaw85" path="res://gfx/images/blaster_round.png" id="1_ub5v0"]

[sub_resource type="AtlasTexture" id="AtlasTexture_jcjcf"]
atlas = ExtResource("1_ub5v0")
region = Rect2(0, 0, 64, 16)

[sub_resource type="AtlasTexture" id="AtlasTexture_modei"]
atlas = ExtResource("1_ub5v0")
region = Rect2(0, 16, 64, 16)

[sub_resource type="AtlasTexture" id="AtlasTexture_v63eh"]
atlas = ExtResource("1_ub5v0")
region = Rect2(0, 32, 64, 16)

[resource]
animations = [{
"frames": [{
"duration": 1.0,
"texture": SubResource("AtlasTexture_jcjcf")
}, {
"duration": 1.0,
"texture": SubResource("AtlasTexture_modei")
}, {
"duration": 1.0,
"texture": SubResource("AtlasTexture_v63eh")
}],
"loop": true,
"name": &"default",
"speed": 12.0
}]
